feat_key,cl_size,min_s,clusters_train,clusters_test,clusters_dev,outliers_train,outliers_test,outliers_dev,ARI_train,ARI_test,ARI_dev,NMI_train,NMI_test,NMI_dev,prec_train,prec_dev,prec_test,recall_train,recall_dev,recall_test,f1_train,f1_dev,f1_test
feats_nosp_transVgg16big_nsampling_rnd_win64_neg_samples4_lcontexts2_rcontexts2_flts40_embsize100_fc_size512_unit_norm_var_dropout_keep0.9_l2_reg0.0005_featinput_unnormalized.feats.ark_dot_combine_tied_embs_5_3,-,5,3,-,16,11,-,14,21,-,0.9537,0.9458,-,0.9636,0.9493,-,0.9901,0.9963,-,0.9188,0.9240,-,0.9531,0.9588
feats_sp_transVgg16big_nsampling_rnd_win32_neg_samples4_lcontexts2_rcontexts2_flts40_embsize100_fc_size512_unit_norm_var_dropout_keep0.9_l2_reg0.0005_featinput_unnormalized.feats.ark_dot_combine_tied_embs_5_3,-,5,3,-,16,12,-,22,32,-,0.9456,0.9178,-,0.9536,0.9146,-,0.9844,0.9962,-,0.8789,0.9107,-,0.9287,0.9515
feats_sp_transVgg16big_nsampling_rnd_win64_neg_samples4_lcontexts2_rcontexts2_flts40_embsize100_fc_size512_unit_norm_var_dropout_keep0.9_l2_reg0.0005_featinput_unnormalized.feats.ark_dot_combine_tied_embs_5_3,-,5,3,-,15,11,-,23,25,-,0.9517,0.9340,-,0.9633,0.9366,-,0.9884,0.9967,-,0.9011,0.9204,-,0.9428,0.9570
feats_transVgg16big_nsampling_rnd_win128_neg_samples4_lcontexts2_rcontexts2_flts40_embsize100_fc_size2048_unit_norm_var_dropout_keep0.9_l2_reg0.0005_featinput_unnormalized.feats.ark_dot_combine_tied_embs_lmt_5_3,-,5,3,-,16,11,-,24,20,-,0.9372,0.9654,-,0.9449,0.9351,-,0.9913,0.9953,-,0.9508,0.8978,-,0.9706,0.9440
feats_transVgg16big_nsampling_rnd_win64_neg_samples4_lcontexts2_rcontexts2_flts40_embsize100_fc_size2048_unit_norm_var_dropout_keep0.9_l2_reg0.0005_featinput_unnormalized.feats.ark_dot_combine_tied_embs_lmt_5_3,-,5,3,-,16,11,-,20,24,-,0.9480,0.9381,-,0.9578,0.9414,-,0.9942,0.9964,-,0.9029,0.9145,-,0.9463,0.9537
tedlium_ivectors_nosp_5_3,-,5,3,1630,12,10,8699,1,2,0.7195,0.9717,0.9792,0.9453,0.9804,0.9598,0.9712,0.9702,0.9528,0.5717,0.9944,0.9983,0.7197,0.9821,0.9750
tedlium_ivectors_sp_5_3,-,5,3,1623,12,10,9068,1,2,0.7108,0.9717,0.9792,0.9437,0.9804,0.9598,0.9580,0.9702,0.9528,0.5654,0.9944,0.9983,0.7111,0.9821,0.9750
